decorator==4.0.2
Flask==0.10.1
Flask-Cache==0.13.1
Flask-Compress==1.2.1
flask-mongoengine==0.7.1
Flask-PyMongo==0.3.1
Flask-Script==2.0.5
Flask-Sijax==0.4.1
Flask-SQLAlchemy==2.1
Flask-Triangle==0.5.4
Flask-Uploads==0.1.3
Flask-WTF==0.12
functools32==3.2.3.post2
future==0.15.0
itsdangerous==0.24
Jinja2==2.8
jsonrpclib==0.1.3
jsonschema==2.5.1
MarkupSafe==0.23
matplotlib==1.4.3
mongoengine==0.10.0
ner==0.1
networkx==1.10
nltk==3.0.4
numpy==1.9.2
pandas==0.16.2
pbr==1.6.0
psycopg2==2.6.1
pymongo==2.8.1
pyparsing==2.0.3
python-dateutil==2.4.2
pytz==2015.4
requests==2.7.0
scikit-learn==0.16.1
scipy==0.16.0
Sijax==0.3.2
simplejson==3.8.1
six==1.9.0
SQLAlchemy==1.0.9
stevedore==1.7.0
textblob==0.9.1
Unidecode==0.4.18
virtualenv==13.1.2
virtualenv-clone==0.2.6
virtualenvwrapper==4.7.0
virtualenvwrapper-win==1.2.1
Werkzeug==0.10.4
WTForms==2.0.2
